INDEX VERSION 1.131+C:\Users\romai\Documents\workspace-spring-tool-suite-4-4.4.0.RELEASE\.metadata\.plugins\org.eclipse.jdt.core
3839510257.index
745653757.index
760907812.index
3429681154.index
2362024986.index
3642146818.index
4120324546.index
561979032.index
426931717.index
4256954395.index
3512191217.index
4219024714.index
558547016.index
1103099294.index
526348005.index
1151569180.index
1802782179.index
379664343.index
657410017.index
3631826872.index
3005837755.index
3046952723.index
3818728146.index
550417845.index
2975737363.index
753608048.index
267669130.index
3112276277.index
1774096173.index
1425488502.index
3342949204.index
903842958.index
2600772703.index
559293653.index
1312872076.index
2882028082.index
1418002285.index
2908083537.index
1852322121.index
1626727424.index
718200124.index
1126418917.index
2772419465.index
3910201083.index
253982783.index
1880659666.index
6361942.index
165794779.index
1783405668.index
579236538.index
1091940775.index
3581402153.index
3393188589.index
2857676326.index
364096953.index
1908334671.index
2956041504.index
2060039664.index
1459523266.index
3395322523.index
1055088976.index
4189844695.index
3984377702.index
636781980.index
2659807013.index
1535974121.index
3927128837.index
1541420716.index
2755271588.index
372771890.index
3384131066.index
2844322549.index
579366810.index
1606806206.index
1780730313.index
2963506855.index
1470970360.index
646436966.index
3572716771.index
4069293921.index
14590354.index
2975910402.index
3060015848.index
2391494199.index
1137011075.index
2675659872.index
2892507483.index
1665081942.index
3973945260.index
3526269868.index
907709744.index
704415286.index
2596923527.index
264644336.index
656049305.index
1289448800.index
1314147558.index
1235265385.index
3319262574.index
2905387254.index
3825043535.index
2845807539.index
1386113789.index
255740290.index
4175802855.index
2314825910.index
1524950697.index
3208172615.index
2540221730.index
3964813353.index
