<?xml version="1.0" encoding="UTF-8"?>
<session version="1.0">
<refactoring comment="Delete resource &apos;professionals&apos;" deleteContents="true" description="Delete resource &apos;professionals&apos;" element1="/professionals" flags="7" id="org.eclipse.ltk.core.refactoring.delete.resources" resources="1" stamp="1571342444604"/>
</session>